<?xml version="1.0" encoding="UTF-8"?>
<svg width="167px" height="144px" viewBox="0 0 167 144" version="1.1" xmlns="http://www.w3.org/2000/svg" xmlns:xlink="http://www.w3.org/1999/xlink">
    <!-- Generator: Sketch 59.1 (86144) - https://sketch.com -->
    <title>Group 2</title>
    <desc>Created with Sketch.</desc>
    <g id="Page-1" stroke="none" stroke-width="1" fill="none" fill-rule="evenodd">
        <g id="Group-2" fill="#FFFFFF" fill-rule="nonzero">
            <path d="M119.654667,0.0138157065 L84.9419457,0.0138157065 L84.9419457,0 L48.3453328,0 C45.9458054,0 44,1.96151273 44,4.38005538 L44,91.0940992 C44,93.5128006 45.9458054,95.4727253 48.3453328,95.4727253 L80.5966129,95.4727253 C82.9959827,95.4727253 84.9419457,93.5128006 84.9419457,91.0940992 L84.9419457,80.2659201 C84.9419457,77.8473774 86.8863331,75.8858647 89.2872785,75.8858647 L109.128476,75.8858647 C111.528003,75.8858647 113.472391,73.92594 113.472391,71.5073973 L113.472391,48.9029958 C113.472391,46.4844532 111.528003,44.5229405 109.128476,44.5229405 L89.2872785,44.5229405 C89.0514376,44.5229405 88.8215832,44.4894336 88.5962977,44.4529092 C86.775896,47.4263034 83.5372981,49.4364093 79.8345806,49.4364093 L64.3447026,49.4364093 L64.3447026,44.532151 L75.8279637,44.532151 C76.6867271,44.532151 77.3898385,43.8250091 77.3898385,42.9577957 C77.3898385,42.0921702 76.6867271,41.3850284 75.8279637,41.3850284 L64.3447026,41.3850284 L64.3447026,36.7412041 L75.8279637,36.7412041 C76.6867271,36.7412041 77.3898385,36.032633 77.3898385,35.1670075 C77.3898385,34.3013821 76.6867271,33.5926522 75.8279637,33.5926522 L64.3447026,33.5926522 L64.3447026,28.6318607 L79.836156,28.6318607 L79.836156,28.6334487 C83.7202048,28.6334487 87.0979125,30.8403093 88.857818,34.0574634 C89.0014967,34.0438066 89.1390312,34.014746 89.2872785,34.014746 L119.654667,34.014746 C122.055612,34.014746 124,32.053392 124,29.6346906 L124,4.39387107 C124,1.97516963 122.055612,0.0138157065 119.654667,0.0138157065" id="Fill-1"></path>
            <g id="Group" transform="translate(0.000000, 111.000000)">
                <polygon id="Fill-5" points="5.6077083 5.41473992 18.7415493 5.41473992 18.7415493 0.19242429 7.10542736e-15 0.19242429 7.10542736e-15 25.1351904 5.6077083 25.1351904 5.6077083 15.7537802 16.6613198 15.7537802 16.6613198 10.5313764 5.6077083 10.5313764"></polygon>
                <path d="M27.5439521,20.2956097 C26.4103536,20.2956097 25.4914181,19.9102327 24.7317543,19.1174623 C23.9788177,18.3340269 23.5972822,17.2572435 23.5972822,15.9184637 C23.5972822,14.561102 23.9678968,13.5147894 24.7317543,12.7194651 C25.4914181,11.9266947 26.4112274,11.5413177 27.5439521,11.5413177 C28.6751043,11.5413177 29.5940398,11.9266947 30.3562373,12.7194651 C31.1192211,13.5147894 31.4898358,14.561102 31.4898358,15.9184637 C31.4898358,17.2767061 31.1192211,18.3230187 30.3562373,19.1174623 C29.5949134,19.9102327 28.6758906,20.2956097 27.5439521,20.2956097 M33.9424273,9.27458604 C33.1165386,8.42518924 32.1447454,7.74567173 31.05553,7.25373481 C29.9613344,6.76012473 28.7799457,6.51001724 27.5439521,6.51001724 C26.3063858,6.51001724 25.1249972,6.76012473 24.029928,7.25461547 C22.9407998,7.74646434 21.9706667,8.42598185 21.144778,9.27458604 C20.3196756,10.123983 19.6548059,11.1254699 19.1701762,12.251306 C18.6837991,13.3829546 18.4373343,14.6169358 18.4373343,15.9184637 C18.4373343,17.2208723 18.6837991,18.4548535 19.1701762,19.5857094 C19.6548059,20.7123381 20.3196756,21.7147058 21.144778,22.5624294 C21.969793,23.4118262 22.9407998,24.0913437 24.029928,24.5831926 C25.1233372,25.0768027 26.3047259,25.3269982 27.5439521,25.3269982 C28.7816058,25.3269982 29.9629944,25.0768027 31.0564036,24.5831926 C32.1447454,24.0922244 33.1165386,23.4126188 33.9424273,22.5632219 C34.7674424,21.7147058 35.4315257,20.7131308 35.9161554,19.5857094 C36.4033188,18.4531802 36.649871,17.219199 36.649871,15.9184637 C36.649871,14.6177284 36.4033188,13.3846278 35.9161554,12.251306 C35.4315257,11.1246773 34.7674424,10.1231023 33.9424273,9.27458604" id="Fill-6"></path>
                <path d="M46.9557879,20.2956097 C45.8229758,20.2956097 44.9031666,19.9102327 44.1435901,19.1174623 C43.3905662,18.3340269 43.009118,17.2563628 43.009118,15.9184637 C43.009118,14.5619826 43.3797326,13.51567 44.1435901,12.7194651 C44.9040402,11.9266947 45.8238495,11.5413177 46.9557879,11.5413177 C48.0877264,11.5413177 49.0067492,11.9266947 49.7680731,12.7194651 C50.5310569,13.5147894 50.9016716,14.561102 50.9016716,15.9184637 C50.9016716,17.2767061 50.5310569,18.3230187 49.7680731,19.1174623 C49.0075356,19.9102327 48.0886,20.2956097 46.9557879,20.2956097 M53.3541762,9.27458604 C52.5282865,8.42518924 51.5573677,7.74567173 50.4681521,7.25373481 C49.3739565,6.76012473 48.1925678,6.51001724 46.9557879,6.51001724 C45.719008,6.51001724 44.5368331,6.76012473 43.4425501,7.25461547 C42.3542082,7.74567173 41.3832888,8.42598185 40.5565264,9.27458604 C39.7315114,10.123983 39.0665543,11.1254699 38.5827983,12.251306 C38.0964213,13.3820739 37.8499564,14.6160551 37.8499564,15.9184637 C37.8499564,17.221753 38.0964213,18.4557342 38.5827983,19.5857094 C39.0665543,20.7123381 39.7315114,21.7138251 40.5565264,22.5624294 C41.3832888,23.4126188 42.3542082,24.0913437 43.4425501,24.5831926 C44.5350856,25.0768027 45.717348,25.3269982 46.9557879,25.3269982 C48.1942279,25.3269982 49.3756165,25.0768027 50.4681521,24.5831926 C51.5573677,24.0922244 52.5282865,23.4126188 53.3541762,22.5632219 C54.1792777,21.7147058 54.843362,20.7131308 55.3287772,19.5857094 C55.8151548,18.4531802 56.0624935,17.219199 56.0624935,15.9184637 C56.0624935,14.618609 55.8151548,13.3846278 55.3279913,12.251306 C54.843362,11.1246773 54.1792777,10.1231023 53.3541762,9.27458604" id="Fill-7"></path>
                <path d="M69.254871,12.7191129 C70.0187279,13.5144372 70.3902165,14.5616304 70.3902165,15.9189922 C70.3902165,17.2577719 70.0078075,18.3336746 69.254871,19.1179907 C68.4960803,19.9098805 67.5753976,20.2953455 66.4426728,20.2953455 C65.3107339,20.2953455 64.3900513,19.9098805 63.6312617,19.1179907 C62.8791112,18.3336746 62.4967886,17.2577719 62.4967886,15.9189922 C62.4967886,14.5616304 62.8681896,13.5144372 63.6312617,12.7191129 C64.3909248,11.927223 65.3115211,11.5409655 66.4426728,11.5409655 C67.5746116,11.5409655 68.4952067,11.927223 69.254871,12.7191129 L69.254871,12.7191129 Z M70.011214,7.82052778 C69.8149867,7.68701969 69.6070507,7.55853141 69.3856601,7.43427021 C68.9681297,7.2229998 68.467598,7.01586853 67.8982214,6.81983354 C67.3037703,6.61446348 66.6229125,6.51045751 65.8758304,6.51045751 C64.7388243,6.51045751 63.640435,6.74797157 62.6074839,7.21621867 C61.5777666,7.68446576 60.6621511,8.34707458 59.8865856,9.18634394 C59.1110213,10.0230593 58.4863408,11.0254269 58.0285331,12.1647371 C57.5690647,13.3057207 57.3367537,14.5684114 57.3367537,15.9189922 C57.3367537,17.2687802 57.5690647,18.5314709 58.0276596,19.6724545 C58.4854673,20.8116766 59.1101477,21.8132517 59.8857997,22.649967 C60.7954744,23.6346333 61.8914171,24.3715699 63.1440981,24.8423709 C63.9666666,25.1525394 64.847859,25.3156378 65.7626009,25.326646 L65.8758304,25.326646 C66.669829,25.326646 67.3976909,25.2235207 68.0390585,25.0207046 C68.6704668,24.8221157 69.2213216,24.5837209 69.6732749,24.3141508 C69.7797766,24.2524165 69.8828705,24.1882164 69.9860519,24.1231356 C70.030523,24.0935455 70.0765659,24.0799833 70.124356,24.0799833 C70.2526995,24.0799833 70.3910024,24.1839893 70.3910024,24.3513147 L70.3918759,25.1356308 L75.1720361,25.1356308 L75.1720361,0.191983901 L70.011214,0.191983901 L70.011214,7.82052778 Z" id="Fill-8"></path>
                <path d="M91.551507,11.9313622 C90.6182433,11.3540893 89.5869529,10.8900694 88.4885635,10.549518 C87.4396248,10.2241141 86.4434558,9.90381787 85.5270532,9.59532262 C84.6533746,9.29950875 83.9196596,8.9656504 83.3444286,8.60220188 C82.8548197,8.29203337 82.6259152,7.87962009 82.6259152,7.30234734 C82.6259152,6.75721858 82.8908146,6.25682737 83.4341555,5.77175964 C83.9867574,5.2807035 84.7883585,5.0313885 85.8163288,5.0313885 C86.8375723,5.0313885 87.6341051,5.30263188 88.1841739,5.83684047 C88.6226727,6.2628159 88.8783987,6.82309191 88.9648055,7.54831568 L89.0184498,8.00044669 L94.092078,6.82908043 L94.0216589,6.44361547 C93.9218851,5.89425951 93.7700401,5.36436618 93.5680448,4.86820217 C93.1706082,3.8886437 92.5911848,3.02409941 91.8482952,2.29808303 C91.1070663,1.57462058 90.2149523,1.00412884 89.1979036,0.60263585 C88.1833004,0.202904066 87.0455072,0 85.8163288,0 C84.4889485,0 83.2765437,0.202023403 82.2133645,0.600081917 C81.1510576,0.999020977 80.2312485,1.53234891 79.4799727,2.18650344 C78.7203084,2.84655833 78.1257697,3.63342834 77.7124319,4.52421627 C77.2982217,5.41755813 77.0877515,6.36585315 77.0877515,7.34118441 C77.0877515,8.8261539 77.4189638,10.046661 78.0713394,10.9678317 C78.7077274,11.867162 79.5134346,12.6075332 80.4660061,13.1703632 C81.4017165,13.722273 82.4322209,14.1609299 83.5314838,14.474533 C84.59213,14.7779205 85.5840178,15.0915236 86.4778788,15.4059193 C87.3498979,15.7126534 88.0827395,16.0643011 88.6562222,16.4505586 C89.1459187,16.7809824 89.3839965,17.2331134 89.3839965,17.8331954 C89.3839965,18.4797762 89.1081767,19.0359132 88.5396737,19.5337505 C87.9636568,20.0391614 87.0471678,20.2952574 85.8163288,20.2952574 C84.6919038,20.2952574 83.8056441,19.9917818 83.1809637,19.3925806 C82.553749,18.7924987 82.2477875,18.0318723 82.2477875,17.0674612 L82.2477875,16.6583945 L76.8982508,16.6583945 L76.8982508,17.0674612 C76.8982508,18.2651593 77.1053997,19.3807798 77.5154174,20.3831474 C77.9270958,21.3888615 78.5257406,22.2746296 79.2954517,23.0124468 C80.0627163,23.750264 81.0076,24.3275369 82.1026692,24.7290299 C83.1884775,25.1254151 84.4387119,25.3274386 85.8163288,25.3274386 C87.1695706,25.3274386 88.4198051,25.1195147 89.5307743,24.7087747 C90.6425318,24.2988273 91.6068109,23.746125 92.3966169,23.0665194 C93.1907031,22.3819821 93.8153835,21.5993393 94.2538835,20.7398148 C94.6974507,19.8692821 94.9229462,18.9555969 94.9229462,18.0250913 C94.9229462,16.4927423 94.594268,15.224151 93.9453002,14.253047 C93.3105717,13.3022861 92.504778,12.5213165 91.551507,11.9313622" id="Fill-9"></path>
                <path d="M102.971627,1.45740468 L98.3784343,2.61195042 L98.3784343,5.38752756 C98.3784343,6.56144775 97.861129,7.08464801 96.701495,7.08464801 L95.4194582,7.08464801 L95.4194582,11.5412296 L97.8108048,11.5412296 L97.8108048,18.5984892 C97.8108048,19.6143309 97.9658836,20.5398169 98.2728062,21.3494959 C98.5796424,22.1608483 99.0139487,22.8750638 99.565677,23.4733844 C100.121599,24.0776935 100.793196,24.5425941 101.563781,24.8569898 C102.329298,25.1697124 103.176155,25.3269102 104.080063,25.3269102 C104.669535,25.3269102 105.204488,25.2576023 105.642987,25.1265599 C105.891986,25.0699335 106.120104,24.9981597 106.320438,24.9110624 L106.56533,24.8045906 L106.56533,20.0403063 L105.979179,20.3395547 C105.905441,20.3775111 105.831615,20.405428 105.758663,20.4223367 C105.679071,20.4434726 105.584276,20.458708 105.476989,20.4705088 C105.367079,20.4815171 105.216196,20.4874175 105.02582,20.4874175 C104.375192,20.4874175 103.880514,20.3074106 103.514094,19.9363884 C103.149332,19.567832 102.971627,19.0675289 102.971627,18.4082666 L102.971627,11.5412296 L106.754831,11.5412296 L106.754831,6.70173698 L102.971627,6.70173698 L102.971627,1.45740468 Z" id="Fill-10"></path>
                <polygon id="Fill-11" points="126.769156 25.1358069 131.929136 25.1358069 131.929136 0.192133617 126.769156 0.192133617"></polygon>
                <path d="M140.034835,12.4302562 C140.682144,11.8318476 141.502966,11.5411416 142.543517,11.5411416 C143.582409,11.5411416 144.403318,11.8318476 145.050626,12.4302562 C145.585492,12.9229856 145.956107,13.4952387 146.177497,14.1687678 L138.909624,14.1687678 C139.1318,13.4994659 139.508269,12.9162927 140.034835,12.4302562 M148.697974,9.12390509 C147.907294,8.29740539 146.971496,7.64827067 145.917578,7.19358573 C144.862785,6.74057405 143.72744,6.51063362 142.543517,6.51063362 C141.306825,6.51063362 140.123688,6.76082928 139.029493,7.25443936 C137.941151,7.74628811 136.970232,8.42580562 136.144256,9.27520254 C135.318367,10.1238068 134.65437,11.1252937 134.169654,12.2519225 C133.683364,13.3827784 133.4369,14.6167597 133.4369,15.9182876 C133.4369,17.2206961 133.683364,18.4546774 134.169654,19.5855333 C134.65437,20.712162 135.318367,21.713649 136.144256,22.5622532 C136.970232,23.4125308 137.941151,24.0911676 139.029493,24.5830164 C140.122029,25.0766266 141.305077,25.3268221 142.543517,25.3268221 C143.571487,25.3268221 144.54328,25.1501617 145.432074,24.801156 C146.308287,24.4579627 147.106568,24.0066243 147.804986,23.4607029 C148.500959,22.9154861 149.101264,22.2875753 149.589301,21.5928224 C149.686541,21.4542065 149.776268,21.3139172 149.864247,21.1753013 L150.117528,20.7704617 L145.557885,18.9567418 L145.565397,18.9558611 L145.442996,19.1088318 C145.266948,19.3311106 145.043898,19.5348072 144.784766,19.7089137 C144.537427,19.8677849 144.231377,20.0072815 143.875003,20.1238809 C143.527105,20.2380145 143.078471,20.2955217 142.543517,20.2955217 C141.51476,20.2955217 140.700579,20.0343178 140.124562,19.5171059 C139.660027,19.1012582 139.326282,18.6186563 139.115026,18.051511 L151.029735,18.051511 L151.078399,17.6990708 C151.103561,17.5190639 151.204995,16.7592301 151.230158,16.5657491 C151.257853,16.3527173 151.27122,16.1346658 151.27122,15.9182876 C151.27122,14.5448978 151.038996,13.2636251 150.579529,12.1090794 C150.120847,10.9537411 149.487779,9.94970024 148.697974,9.12390509" id="Fill-12"></path>
                <path d="M165.825314,16.7779882 C165.354138,16.0832352 164.759599,15.5093089 164.058648,15.0715327 C163.371936,14.6455572 162.618126,14.3142528 161.816612,14.087747 C161.048562,13.8722495 160.337475,13.667672 159.683526,13.4758642 C159.053777,13.2924227 158.524765,13.0896066 158.110554,12.8741091 C157.718097,12.6695316 157.667773,12.4489262 157.667773,12.2807201 C157.667773,11.9148057 157.802757,11.6138841 158.081984,11.360342 C158.368813,11.0992262 158.793858,10.9673914 159.344712,10.9673914 C159.904042,10.9673914 160.356782,11.122916 160.726524,11.4432122 C161.101331,11.7694087 161.332769,12.087239 161.411575,12.3863993 L161.518077,12.6906675 L161.902933,12.6906675 L166.127169,11.0780904 L165.983799,10.6951792 C165.620786,9.7216093 165.037167,8.86455059 164.249022,8.14698861 C163.055053,7.0609583 161.34037,6.51072168 159.154425,6.51072168 C158.151616,6.51072168 157.237661,6.66791959 156.436934,6.97729562 C155.640401,7.28746413 154.937701,7.70410449 154.349103,8.21885046 C153.752119,8.74028951 153.290991,9.36238787 152.978214,10.0638339 C152.665437,10.7653678 152.506952,11.5116394 152.506952,12.2807201 C152.506952,13.3845398 152.755164,14.2956709 153.243987,14.9887506 C153.716035,15.6572598 154.311361,16.2116355 155.012314,16.6342644 C155.698239,17.0475583 156.452049,17.3653006 157.254436,17.5783323 C158.054377,17.791276 158.750261,17.9848451 159.382455,18.1690793 C160.010543,18.3525208 160.539556,18.5553368 160.955427,18.7717151 C161.347884,18.9770851 161.398207,19.1960173 161.398207,19.3658966 C161.398207,19.7301377 161.226267,20.0623228 160.872428,20.380065 C160.504347,20.7096962 160.004603,20.8703287 159.344712,20.8703287 C158.683163,20.8703287 158.177565,20.7037958 157.796116,20.3598098 C157.408728,20.0123893 157.17895,19.6016494 157.09429,19.1039002 L157.036453,18.7641414 L152.085227,18.7641414 L152.131357,19.2153917 C152.31745,21.0485743 153.043653,22.5420861 154.289606,23.6551527 C155.533026,24.7639921 157.360063,25.3269102 159.722055,25.3269102 C160.746705,25.3269102 161.690803,25.170505 162.527613,24.861217 C163.363548,24.5527218 164.088003,24.1352006 164.67826,23.6196621 C165.272799,23.0998964 165.738994,22.4812325 166.066798,21.7796984 C166.393816,21.0764912 166.559029,20.3276658 166.559029,19.5560312 C166.559029,18.4319563 166.312476,17.4972234 165.825314,16.7779882" id="Fill-13"></path>
                <path d="M119.818952,16.9355383 L119.828126,17.1366812 C119.828126,17.139235 119.83066,17.2000886 119.829,17.2998675 L119.826466,17.2998675 L119.826466,17.3826495 C119.807158,17.8137328 119.702404,18.7188755 119.160722,19.3180768 C118.68946,19.8387231 117.868639,20.1016002 116.719053,20.1016002 C115.538537,20.1016002 114.720948,19.857305 114.290837,19.3747912 C113.724081,18.7366648 113.798693,17.6573275 113.802012,17.6117093 L113.816254,17.4300291 L113.803673,17.4164669 L113.823856,7.30648637 L108.647045,7.30648637 L108.647045,17.1561437 C108.57916,17.9608031 108.517129,20.6535101 110.386103,22.8128891 C111.837458,24.4897545 113.968012,25.3400321 116.719053,25.3400321 C117.841817,25.3400321 118.883156,25.1802802 119.826466,24.8683504 L119.826466,24.871785 C119.805498,25.6941455 119.383773,27.6067637 115.905744,27.6067637 C114.458583,27.6067637 113.074238,27.3481137 111.902897,26.8596114 L111.515508,26.6990671 L109.728747,31.5452527 L110.090101,31.6965501 C111.90709,32.4521567 113.916028,32.8349798 116.06091,32.8349798 C118.889096,32.8349798 121.071633,32.010946 122.735992,30.3155867 C124.951205,28.0564288 124.994801,25.2132169 124.992355,24.8988212 L124.992355,17.2144434 L124.994801,16.9465465 L124.994801,7.31071357 L119.818952,7.31071357 L119.818952,16.9355383 Z" id="Fill-14"></path>
            </g>
        </g>
    </g>
</svg>